﻿{
	"name": "Accessibility",
	"version": "14.0.1.1201",
	"description": "nexacro platform 14 Unified Framework Library",
	"license": "",
	"scripts": [
			"CompBase/Accessibility.js",
	]
}
//@ sourceURL=Accessibility.json
