﻿{
	"name": "Chart",
	"version": "14.0.1.400",
	"description": "nexacro platform 14 Unified Framework Library",
	"license": "",
	"scripts": [
			"Chart/ChartInfo.js", 
			"Chart/Chart.js", 
	]
}
//@ sourceURL=Chart.json
