GenerateBuildAdm.class
com\vinflux\adm\session\PwChpherTestCase.class
com\vinflux\framework\context\AbstractApplicationContextTest.class
com\vinflux\framework\util\CipherUtilTestCase.class
GenerateBuildSys.class
com\vinflux\framework\idgen\IdGenTestCase.class
