﻿{
	"name": "DeviceAPI",
	"version": "14.0.1.1201",
	"description": "nexacro platform 14 Unified Framework Library",
	"license": "",
	"scripts": [
			"DeviceAPI/SQLite.js",
			"DeviceAPI/SQLite_Runtime.js",
			"DeviceAPI/Plugin.js",
			"DeviceAPI/DeviceObjs.js",
			"DeviceAPI/DeviceObjs_Runtime.js",
			"DeviceAPI/XPush.js",
			"DeviceAPI/TCPClientSocket.js",
			"DeviceAPI/Mobile.js"
	]
}
//@ sourceURL=DeviceAPI.json
